\relax 
\bibcite{Watts1998}{1}
\bibcite{Fosdick2015}{2}
\@writefile{toc}{\contentsline {section}{\numberline {1}Introduction}{1}}
\@writefile{toc}{\contentsline {section}{\numberline {2}Calculating Graphlet Counts}{1}}
