%!PS-Adobe-3.0 EPSF-3.0
%%Title: D:/code_projects/graphlet_pyframework/results/visualizations/biplex_vis_synthetic.eps
%%Creator: matplotlib version 2.0.0, http://matplotlib.org/
%%CreationDate: Tue Jan 31 12:38:57 2017
%%Orientation: portrait
%%BoundingBox: 83 247 528 544
%%EndComments
%%BeginProlog
/mpldict 8 dict def
mpldict begin
/m { moveto } bind def
/l { lineto } bind def
/r { rlineto } bind def
/c { curveto } bind def
/cl { closepath } bind def
/box {
m
1 index 0 r
0 exch r
neg 0 r
cl
} bind def
/clipbox {
box
clip
newpath
} bind def
%!PS-Adobe-3.0 Resource-Font
%%Title: DejaVu Sans
%%Copyright: Copyright (c) 2003 by Bitstream, Inc. All Rights Reserved. Copyright (c) 2006 by Tavmjong Bah. All Rights Reserved. DejaVu changes are in public domain 
%%Creator: Converted from TrueType to type 3 by PPR
25 dict begin
/_d{bind def}bind def
/_m{moveto}_d
/_l{lineto}_d
/_cl{closepath eofill}_d
/_c{curveto}_d
/_sc{7 -1 roll{setcachedevice}{pop pop pop pop pop pop}ifelse}_d
/_e{exec}_d
/FontName /DejaVuSans def
/PaintType 0 def
/FontMatrix[.001 0 0 .001 0 0]def
/FontBBox[-1021 -463 1793 1232]def
/FontType 3 def
/Encoding [ /zero /two /four /six /eight /minus ] def
/FontInfo 10 dict dup begin
/FamilyName (DejaVu Sans) def
/FullName (DejaVu Sans) def
/Notice (Copyright (c) 2003 by Bitstream, Inc. All Rights Reserved. Copyright (c) 2006 by Tavmjong Bah. All Rights Reserved. DejaVu changes are in public domain ) def
/Weight (Book) def
/Version (Version 2.35) def
/ItalicAngle 0.0 def
/isFixedPitch false def
/UnderlinePosition -130 def
/UnderlineThickness 90 def
end readonly def
/CharStrings 6 dict dup begin
/zero{636 0 66 -13 570 742 _sc
318 664 _m
267 664 229 639 203 589 _c
177 539 165 464 165 364 _c
165 264 177 189 203 139 _c
229 89 267 64 318 64 _c
369 64 407 89 433 139 _c
458 189 471 264 471 364 _c
471 464 458 539 433 589 _c
407 639 369 664 318 664 _c
318 742 _m
399 742 461 709 505 645 _c
548 580 570 486 570 364 _c
570 241 548 147 505 83 _c
461 19 399 -13 318 -13 _c
236 -13 173 19 130 83 _c
87 147 66 241 66 364 _c
66 486 87 580 130 645 _c
173 709 236 742 318 742 _c
_cl}_d
/two{{636 0 73 0 536 742 _sc
192 83 _m
536 83 _l
536 0 _l
73 0 _l
73 83 _l
110 121 161 173 226 239 _c
290 304 331 346 348 365 _c
380 400 402 430 414 455 _c
426 479 433 504 433 528 _c
433 566 419 598 392 622 _c
365 646 330 659 286 659 _c
255 659 222 653 188 643 _c
154 632 117 616 78 594 _c
78 694 _l
118 710 155 722 189 730 _c
223 738 255 742 284 742 _c
}_e{359 742 419 723 464 685 _c
509 647 532 597 532 534 _c
532 504 526 475 515 449 _c
504 422 484 390 454 354 _c
446 344 420 317 376 272 _c
332 227 271 164 192 83 _c
_cl}_e}_d
/four{636 0 49 0 580 729 _sc
378 643 _m
129 254 _l
378 254 _l
378 643 _l
352 729 _m
476 729 _l
476 254 _l
580 254 _l
580 172 _l
476 172 _l
476 0 _l
378 0 _l
378 172 _l
49 172 _l
49 267 _l
352 729 _l
_cl}_d
/six{{636 0 70 -13 573 742 _sc
330 404 _m
286 404 251 388 225 358 _c
199 328 186 286 186 234 _c
186 181 199 139 225 109 _c
251 79 286 64 330 64 _c
374 64 409 79 435 109 _c
461 139 474 181 474 234 _c
474 286 461 328 435 358 _c
409 388 374 404 330 404 _c
526 713 _m
526 623 _l
501 635 476 644 451 650 _c
425 656 400 659 376 659 _c
310 659 260 637 226 593 _c
}_e{192 549 172 482 168 394 _c
187 422 211 444 240 459 _c
269 474 301 482 336 482 _c
409 482 467 459 509 415 _c
551 371 573 310 573 234 _c
573 159 550 99 506 54 _c
462 9 403 -13 330 -13 _c
246 -13 181 19 137 83 _c
92 147 70 241 70 364 _c
70 479 97 571 152 639 _c
206 707 280 742 372 742 _c
396 742 421 739 447 735 _c
472 730 498 723 526 713 _c
_cl}_e}_d
/eight{{636 0 68 -13 568 742 _sc
318 346 _m
271 346 234 333 207 308 _c
180 283 167 249 167 205 _c
167 161 180 126 207 101 _c
234 76 271 64 318 64 _c
364 64 401 76 428 102 _c
455 127 469 161 469 205 _c
469 249 455 283 429 308 _c
402 333 365 346 318 346 _c
219 388 _m
177 398 144 418 120 447 _c
96 476 85 511 85 553 _c
85 611 105 657 147 691 _c
188 725 245 742 318 742 _c
}_e{390 742 447 725 489 691 _c
530 657 551 611 551 553 _c
551 511 539 476 515 447 _c
491 418 459 398 417 388 _c
464 377 501 355 528 323 _c
554 291 568 251 568 205 _c
568 134 546 80 503 43 _c
459 5 398 -13 318 -13 _c
237 -13 175 5 132 43 _c
89 80 68 134 68 205 _c
68 251 81 291 108 323 _c
134 355 171 377 219 388 _c
183 544 _m
183 506 194 476 218 455 _c
}_e{242 434 275 424 318 424 _c
360 424 393 434 417 455 _c
441 476 453 506 453 544 _c
453 582 441 611 417 632 _c
393 653 360 664 318 664 _c
275 664 242 653 218 632 _c
194 611 183 582 183 544 _c
_cl}_e}_d
/minus{838 0 106 272 732 355 _sc
106 355 _m
732 355 _l
732 272 _l
106 272 _l
106 355 _l
_cl}_d
end readonly def

/BuildGlyph
 {exch begin
 CharStrings exch
 2 copy known not{pop /.notdef}if
 true 3 1 roll get exec
 end}_d

/BuildChar {
 1 index /Encoding get exch get
 1 index /BuildGlyph get exec
}_d

FontName currentdict end definefont pop
end
%%EndProlog
mpldict begin
83.16 247.68 translate
445.68 296.64 0 0 clipbox
gsave
0 0 m
445.68 0 l
445.68 296.64 l
0 296.64 l
cl
1.000 setgray
fill
grestore
gsave
55.71 32.6304 m
401.112 32.6304 l
401.112 261.0432 l
55.71 261.0432 l
cl
1.000 setgray
fill
grestore
1.000 setlinewidth
0 setlinejoin
0 setlinecap
[] 0 setdash
0.950 setgray
gsave
338.290937 101.921368 m
157.057012 106.720664 l
155.358587 225.551987 l
340.676752 222.424779 l
gsave
fill
grestore
stroke
grestore
0.900 setgray
gsave
118.652441 72.821329 m
157.057012 106.720664 l
155.358587 225.551987 l
115.824846 203.419323 l
gsave
fill
grestore
stroke
grestore
0.925 setgray
gsave
318.327986 66.968168 m
338.290937 101.921368 l
157.057012 106.720664 l
118.652441 72.821329 l
gsave
fill
grestore
stroke
grestore
0.800 setlinewidth
1 setlinejoin
2 setlinecap
[] 0 setdash
0.000 setgray
gsave
338.290937 101.921368 m
318.327986 66.968168 l
stroke
grestore
0 setlinecap
0.690 setgray
gsave
320.247287 70.328677 m
122.339713 76.076048 l
119.628483 205.54876 l
stroke
grestore
gsave
322.559355 74.376886 m
126.782982 79.998077 l
124.209726 208.113534 l
stroke
grestore
gsave
324.820546 78.336014 m
131.129987 83.835136 l
128.689341 210.621412 l
stroke
grestore
gsave
327.032521 82.208968 m
135.383823 87.589955 l
133.070671 213.074266 l
stroke
grestore
gsave
329.19687 85.998533 m
139.547454 91.26515 l
137.356916 215.473888 l
stroke
grestore
gsave
331.315113 89.707373 m
143.623718 94.863229 l
141.551138 217.821992 l
stroke
grestore
gsave
333.388709 93.33804 m
147.615338 98.386592 l
145.65627 220.120218 l
stroke
grestore
gsave
335.419055 96.89298 m
151.524922 101.837543 l
149.675119 222.37014 l
stroke
grestore
gsave
337.40749 100.374537 m
155.354974 105.218293 l
153.610379 224.573265 l
stroke
grestore
2 setlinecap
0.000 setgray
gsave
318.638824 70.375388 m
323.46545 70.23522 l
stroke
grestore
/DejaVuSans findfont
10.000 scalefont
setfont
gsave
328.182629 52.420792 translate
0.000000 rotate
0.000000 0.000000 m /minus glyphshow
8.378906 0.000000 m /eight glyphshow
grestore
gsave
320.968491 74.422564 m
325.742295 74.285497 l
stroke
grestore
gsave
330.323117 56.581139 translate
0.000000 rotate
0.000000 0.000000 m /minus glyphshow
8.378906 0.000000 m /six glyphshow
grestore
gsave
323.2469 78.380692 m
327.969025 78.246624 l
stroke
grestore
gsave
332.416532 60.649993 translate
0.000000 rotate
0.000000 0.000000 m /minus glyphshow
8.378906 0.000000 m /four glyphshow
grestore
gsave
325.475724 82.252679 m
330.147277 82.121514 l
stroke
grestore
gsave
334.464410 64.630340 translate
0.000000 rotate
0.000000 0.000000 m /minus glyphshow
8.378906 0.000000 m /two glyphshow
grestore
gsave
327.656564 86.041308 m
332.278616 85.912952 l
stroke
grestore
gsave
340.655722 68.525037 translate
0.000000 rotate
0.000000 0.000000 m /zero glyphshow
grestore
gsave
329.790954 89.749242 m
334.364543 89.623606 l
stroke
grestore
gsave
342.616874 72.336819 translate
0.000000 rotate
0.000000 0.000000 m /two glyphshow
grestore
gsave
331.880361 93.379031 m
336.406493 93.256029 l
stroke
grestore
gsave
344.536714 76.068306 translate
0.000000 rotate
0.000000 0.000000 m /four glyphshow
grestore
gsave
333.926194 96.93312 m
338.405843 96.81267 l
stroke
grestore
gsave
346.416535 79.722009 translate
0.000000 rotate
0.000000 0.000000 m /six glyphshow
grestore
gsave
335.929801 100.413853 m
340.363912 100.295877 l
stroke
grestore
gsave
348.257574 83.300334 translate
0.000000 rotate
0.000000 0.000000 m /eight glyphshow
grestore
gsave
118.652441 72.821329 m
318.327986 66.968168 l
stroke
grestore
0 setlinecap
0.690 setgray
gsave
321.999296 222.739957 m
320.030493 102.404927 l
298.181953 67.558716 l
stroke
grestore
gsave
295.8605 223.181044 m
294.473275 103.081714 l
269.996028 68.38494 l
stroke
grestore
gsave
269.830516 223.620295 m
269.020101 103.755745 l
241.936846 69.207449 l
stroke
grestore
gsave
243.908667 224.057721 m
243.670338 104.427038 l
214.003553 70.026268 l
stroke
grestore
gsave
218.094279 224.493334 m
218.423358 105.095609 l
186.195306 70.841421 l
stroke
grestore
gsave
192.386686 224.927145 m
193.278536 105.761474 l
158.511266 71.652933 l
stroke
grestore
gsave
166.785226 225.359164 m
168.235253 106.424651 l
130.950602 72.460829 l
stroke
grestore
2 setlinecap
0.000 setgray
gsave
298.374936 67.866503 m
297.795014 66.941587 l
stroke
grestore
gsave
288.821812 46.979932 translate
0.000000 rotate
0.000000 0.000000 m /minus glyphshow
8.378906 0.000000 m /four glyphshow
grestore
gsave
270.212183 68.691342 m
269.562629 67.770592 l
stroke
grestore
gsave
260.464984 47.840742 translate
0.000000 rotate
0.000000 0.000000 m /minus glyphshow
8.378906 0.000000 m /two glyphshow
grestore
gsave
242.175963 69.512475 m
241.457408 68.595863 l
stroke
grestore
gsave
236.423959 48.697656 translate
0.000000 rotate
0.000000 0.000000 m /zero glyphshow
grestore
gsave
214.265426 70.329928 m
213.478495 69.417424 l
stroke
grestore
gsave
208.322869 49.550702 translate
0.000000 rotate
0.000000 0.000000 m /two glyphshow
grestore
gsave
186.479728 71.143724 m
185.62504 70.235302 l
stroke
grestore
gsave
180.348353 50.399905 translate
0.000000 rotate
0.000000 0.000000 m /four glyphshow
grestore
gsave
158.818033 71.953888 m
157.8962 71.049521 l
stroke
grestore
gsave
152.499556 51.245292 translate
0.000000 rotate
0.000000 0.000000 m /six glyphshow
grestore
gsave
131.279513 72.760444 m
130.291143 71.860105 l
stroke
grestore
gsave
124.775635 52.086889 translate
0.000000 rotate
0.000000 0.000000 m /eight glyphshow
grestore
gsave
118.652441 72.821329 m
115.824846 203.419323 l
stroke
grestore
0 setlinecap
0.690 setgray
gsave
118.420894 83.515759 m
156.917635 116.472248 l
338.486664 111.807195 l
stroke
grestore
gsave
118.104537 98.12735 m
156.727293 129.789664 l
338.753979 125.308802 l
stroke
grestore
gsave
117.786428 112.819795 m
156.535997 143.173814 l
339.022653 138.879063 l
stroke
grestore
gsave
117.466555 127.593767 m
156.34374 156.625199 l
339.292696 152.518503 l
stroke
grestore
gsave
117.144902 142.449946 m
156.150514 170.144328 l
339.56412 166.227653 l
stroke
grestore
gsave
116.821454 157.389022 m
155.956313 183.731713 l
339.836935 180.007048 l
stroke
grestore
gsave
116.496196 172.411688 m
155.761129 197.387874 l
340.111151 193.857229 l
stroke
grestore
gsave
116.169113 187.51865 m
155.564955 211.113332 l
340.386779 207.778744 l
stroke
grestore
2 setlinecap
0.000 setgray
gsave
118.76053 83.806516 m
117.739929 82.932795 l
stroke
grestore
gsave
92.506351 73.537580 translate
0.000000 rotate
0.000000 0.000000 m /minus glyphshow
8.378906 0.000000 m /eight glyphshow
grestore
gsave
118.445371 98.406761 m
117.421163 97.567131 l
stroke
grestore
gsave
92.136313 88.242168 translate
0.000000 rotate
0.000000 0.000000 m /minus glyphshow
8.378906 0.000000 m /six glyphshow
grestore
gsave
118.128471 113.087729 m
117.100629 112.282582 l
stroke
grestore
gsave
91.764213 103.028681 translate
0.000000 rotate
0.000000 0.000000 m /minus glyphshow
8.378906 0.000000 m /four glyphshow
grestore
gsave
117.809813 127.850094 m
116.778313 127.079824 l
stroke
grestore
gsave
91.390034 117.897806 translate
0.000000 rotate
0.000000 0.000000 m /minus glyphshow
8.378906 0.000000 m /two glyphshow
grestore
gsave
117.489384 142.694532 m
116.454202 141.959542 l
stroke
grestore
gsave
95.201259 132.850237 translate
0.000000 rotate
0.000000 0.000000 m /zero glyphshow
grestore
gsave
117.167168 157.621731 m
116.128278 156.922427 l
stroke
grestore
gsave
94.822870 147.886676 translate
0.000000 rotate
0.000000 0.000000 m /two glyphshow
grestore
gsave
116.843151 172.632384 m
115.800528 171.969178 l
stroke
grestore
gsave
94.442349 163.007833 translate
0.000000 rotate
0.000000 0.000000 m /four glyphshow
grestore
gsave
116.517317 187.727194 m
115.470936 187.100503 l
stroke
grestore
gsave
94.059678 178.214426 translate
0.000000 rotate
0.000000 0.000000 m /six glyphshow
grestore
/p0_0 {
newpath
translate
0 5 m
-1.12257 1.545085 l
-4.755283 1.545085 l
-1.816356 -0.59017 l
-2.938926 -4.045085 l
-0 -1.90983 l
2.938926 -4.045085 l
1.816356 -0.59017 l
4.755283 1.545085 l
1.12257 1.545085 l
cl

} bind def
1.000 setlinewidth
0 setlinecap
0.580 0.770 0.874 setrgbcolor
gsave
345.4 228.4 55.71 32.63 clipbox
175.731 126.621 p0_0
gsave
fill
grestore
stroke
grestore
0.548 0.753 0.867 setrgbcolor
gsave
345.4 228.4 55.71 32.63 clipbox
176.685 124.699 p0_0
gsave
fill
grestore
stroke
grestore
0.517 0.736 0.860 setrgbcolor
gsave
345.4 228.4 55.71 32.63 clipbox
173.839 121.817 p0_0
gsave
fill
grestore
stroke
grestore
0.479 0.715 0.852 setrgbcolor
gsave
345.4 228.4 55.71 32.63 clipbox
176.707 118.01 p0_0
gsave
fill
grestore
stroke
grestore
0.448 0.698 0.845 setrgbcolor
gsave
345.4 228.4 55.71 32.63 clipbox
176.077 117.316 p0_0
gsave
fill
grestore
stroke
grestore
0.417 0.681 0.838 setrgbcolor
gsave
345.4 228.4 55.71 32.63 clipbox
177.796 117.177 p0_0
gsave
fill
grestore
stroke
grestore
0.387 0.660 0.826 setrgbcolor
gsave
345.4 228.4 55.71 32.63 clipbox
224.105 158.014 p0_0
gsave
fill
grestore
stroke
grestore
0.362 0.643 0.817 setrgbcolor
gsave
345.4 228.4 55.71 32.63 clipbox
223.502 157.042 p0_0
gsave
fill
grestore
stroke
grestore
0.336 0.626 0.807 setrgbcolor
gsave
345.4 228.4 55.71 32.63 clipbox
222.178 157.319 p0_0
gsave
fill
grestore
stroke
grestore
0.306 0.605 0.795 setrgbcolor
gsave
345.4 228.4 55.71 32.63 clipbox
225.635 157.483 p0_0
gsave
fill
grestore
stroke
grestore
0.281 0.588 0.785 setrgbcolor
gsave
345.4 228.4 55.71 32.63 clipbox
222.589 156.737 p0_0
gsave
fill
grestore
stroke
grestore
0.256 0.570 0.775 setrgbcolor
gsave
345.4 228.4 55.71 32.63 clipbox
225.629 156.402 p0_0
gsave
fill
grestore
stroke
grestore
0.236 0.550 0.765 setrgbcolor
gsave
345.4 228.4 55.71 32.63 clipbox
250.717 162.283 p0_0
gsave
fill
grestore
stroke
grestore
0.212 0.525 0.752 setrgbcolor
gsave
345.4 228.4 55.71 32.63 clipbox
251.22 161.807 p0_0
gsave
fill
grestore
stroke
grestore
0.191 0.505 0.742 setrgbcolor
gsave
345.4 228.4 55.71 32.63 clipbox
254.247 162.358 p0_0
gsave
fill
grestore
stroke
grestore
0.171 0.485 0.731 setrgbcolor
gsave
345.4 228.4 55.71 32.63 clipbox
252.748 162.185 p0_0
gsave
fill
grestore
stroke
grestore
0.147 0.460 0.719 setrgbcolor
gsave
345.4 228.4 55.71 32.63 clipbox
254.769 162.49 p0_0
gsave
fill
grestore
stroke
grestore
0.127 0.440 0.707 setrgbcolor
gsave
345.4 228.4 55.71 32.63 clipbox
254.434 162.568 p0_0
gsave
fill
grestore
stroke
grestore
0.112 0.420 0.692 setrgbcolor
gsave
345.4 228.4 55.71 32.63 clipbox
281.789 143.868 p0_0
gsave
fill
grestore
stroke
grestore
0.093 0.397 0.674 setrgbcolor
gsave
345.4 228.4 55.71 32.63 clipbox
281.999 144.923 p0_0
gsave
fill
grestore
stroke
grestore
0.078 0.377 0.658 setrgbcolor
gsave
345.4 228.4 55.71 32.63 clipbox
282.515 144.91 p0_0
gsave
fill
grestore
stroke
grestore
0.063 0.358 0.643 setrgbcolor
gsave
345.4 228.4 55.71 32.63 clipbox
282.1 146.171 p0_0
gsave
fill
grestore
stroke
grestore
0.047 0.338 0.628 setrgbcolor
gsave
345.4 228.4 55.71 32.63 clipbox
281.723 146.308 p0_0
gsave
fill
grestore
stroke
grestore
0.031 0.314 0.606 setrgbcolor
gsave
345.4 228.4 55.71 32.63 clipbox
279.254 146.821 p0_0
gsave
fill
grestore
stroke
grestore
0.031 0.294 0.576 setrgbcolor
gsave
345.4 228.4 55.71 32.63 clipbox
294.852 136.051 p0_0
gsave
fill
grestore
stroke
grestore
0.031 0.273 0.546 setrgbcolor
gsave
345.4 228.4 55.71 32.63 clipbox
293.982 137.67 p0_0
gsave
fill
grestore
stroke
grestore
0.031 0.249 0.510 setrgbcolor
gsave
345.4 228.4 55.71 32.63 clipbox
294.088 138.771 p0_0
gsave
fill
grestore
stroke
grestore
0.031 0.229 0.480 setrgbcolor
gsave
345.4 228.4 55.71 32.63 clipbox
293.576 139.401 p0_0
gsave
fill
grestore
stroke
grestore
0.031 0.209 0.450 setrgbcolor
gsave
345.4 228.4 55.71 32.63 clipbox
294.201 140.266 p0_0
gsave
fill
grestore
stroke
grestore
0.031 0.188 0.420 setrgbcolor
gsave
345.4 228.4 55.71 32.63 clipbox
285.932 143.345 p0_0
gsave
fill
grestore
stroke
grestore
0.714 0.714 0.847 setrgbcolor
gsave
345.4 228.4 55.71 32.63 clipbox
175.29 135.367 p0_0
gsave
fill
grestore
stroke
grestore
0.695 0.692 0.835 setrgbcolor
gsave
345.4 228.4 55.71 32.63 clipbox
182.146 134.246 p0_0
gsave
fill
grestore
stroke
grestore
0.677 0.671 0.822 setrgbcolor
gsave
345.4 228.4 55.71 32.63 clipbox
172.426 135.941 p0_0
gsave
fill
grestore
stroke
grestore
0.655 0.645 0.808 setrgbcolor
gsave
345.4 228.4 55.71 32.63 clipbox
169.563 138.548 p0_0
gsave
fill
grestore
stroke
grestore
0.636 0.623 0.795 setrgbcolor
gsave
345.4 228.4 55.71 32.63 clipbox
169.403 136.426 p0_0
gsave
fill
grestore
stroke
grestore
0.618 0.602 0.783 setrgbcolor
gsave
345.4 228.4 55.71 32.63 clipbox
165.594 134.847 p0_0
gsave
fill
grestore
stroke
grestore
0.596 0.581 0.773 setrgbcolor
gsave
345.4 228.4 55.71 32.63 clipbox
161.274 152.409 p0_0
gsave
fill
grestore
stroke
grestore
0.577 0.563 0.765 setrgbcolor
gsave
345.4 228.4 55.71 32.63 clipbox
153.015 154.954 p0_0
gsave
fill
grestore
stroke
grestore
0.559 0.545 0.756 setrgbcolor
gsave
345.4 228.4 55.71 32.63 clipbox
153.372 151.084 p0_0
gsave
fill
grestore
stroke
grestore
0.537 0.524 0.746 setrgbcolor
gsave
345.4 228.4 55.71 32.63 clipbox
152.077 149.911 p0_0
gsave
fill
grestore
stroke
grestore
0.518 0.506 0.737 setrgbcolor
gsave
345.4 228.4 55.71 32.63 clipbox
148.07 155.013 p0_0
gsave
fill
grestore
stroke
grestore
0.500 0.487 0.728 setrgbcolor
gsave
345.4 228.4 55.71 32.63 clipbox
149.741 154.074 p0_0
gsave
fill
grestore
stroke
grestore
0.487 0.460 0.713 setrgbcolor
gsave
345.4 228.4 55.71 32.63 clipbox
166.114 175.216 p0_0
gsave
fill
grestore
stroke
grestore
0.470 0.427 0.697 setrgbcolor
gsave
345.4 228.4 55.71 32.63 clipbox
164.909 181.5 p0_0
gsave
fill
grestore
stroke
grestore
0.457 0.400 0.682 setrgbcolor
gsave
345.4 228.4 55.71 32.63 clipbox
168.409 184.564 p0_0
gsave
fill
grestore
stroke
grestore
0.443 0.373 0.668 setrgbcolor
gsave
345.4 228.4 55.71 32.63 clipbox
163.419 183.263 p0_0
gsave
fill
grestore
stroke
grestore
0.427 0.341 0.651 setrgbcolor
gsave
345.4 228.4 55.71 32.63 clipbox
163.478 182.395 p0_0
gsave
fill
grestore
stroke
grestore
0.414 0.314 0.637 setrgbcolor
gsave
345.4 228.4 55.71 32.63 clipbox
163.35 183.963 p0_0
gsave
fill
grestore
stroke
grestore
0.400 0.288 0.625 setrgbcolor
gsave
345.4 228.4 55.71 32.63 clipbox
237.485 212.46 p0_0
gsave
fill
grestore
stroke
grestore
0.384 0.257 0.610 setrgbcolor
gsave
345.4 228.4 55.71 32.63 clipbox
237.336 214.202 p0_0
gsave
fill
grestore
stroke
grestore
0.370 0.231 0.598 setrgbcolor
gsave
345.4 228.4 55.71 32.63 clipbox
230.416 218.326 p0_0
gsave
fill
grestore
stroke
grestore
0.357 0.205 0.586 setrgbcolor
gsave
345.4 228.4 55.71 32.63 clipbox
233.502 216.936 p0_0
gsave
fill
grestore
stroke
grestore
0.343 0.179 0.573 setrgbcolor
gsave
345.4 228.4 55.71 32.63 clipbox
232.834 218.234 p0_0
gsave
fill
grestore
stroke
grestore
0.327 0.149 0.559 setrgbcolor
gsave
345.4 228.4 55.71 32.63 clipbox
230.443 219.104 p0_0
gsave
fill
grestore
stroke
grestore
0.314 0.125 0.548 setrgbcolor
gsave
345.4 228.4 55.71 32.63 clipbox
251.015 210.596 p0_0
gsave
fill
grestore
stroke
grestore
0.301 0.101 0.537 setrgbcolor
gsave
345.4 228.4 55.71 32.63 clipbox
242.618 216.612 p0_0
gsave
fill
grestore
stroke
grestore
0.286 0.072 0.523 setrgbcolor
gsave
345.4 228.4 55.71 32.63 clipbox
321.126 96.506 p0_0
gsave
fill
grestore
stroke
grestore
0.273 0.048 0.512 setrgbcolor
gsave
345.4 228.4 55.71 32.63 clipbox
248.643 215.469 p0_0
gsave
fill
grestore
stroke
grestore
0.260 0.024 0.501 setrgbcolor
gsave
345.4 228.4 55.71 32.63 clipbox
246.921 217.013 p0_0
gsave
fill
grestore
stroke
grestore
0.247 0.000 0.490 setrgbcolor
gsave
345.4 228.4 55.71 32.63 clipbox
245.273 217.935 p0_0
gsave
fill
grestore
stroke
grestore
0.992 0.656 0.383 setrgbcolor
gsave
345.4 228.4 55.71 32.63 clipbox
197.9 123.796 p0_0
gsave
fill
grestore
stroke
grestore
0.992 0.636 0.354 setrgbcolor
gsave
345.4 228.4 55.71 32.63 clipbox
196.05 130.568 p0_0
gsave
fill
grestore
stroke
grestore
0.992 0.616 0.325 setrgbcolor
gsave
345.4 228.4 55.71 32.63 clipbox
192.362 127.292 p0_0
gsave
fill
grestore
stroke
grestore
0.992 0.592 0.290 setrgbcolor
gsave
345.4 228.4 55.71 32.63 clipbox
188.004 124.555 p0_0
gsave
fill
grestore
stroke
grestore
0.992 0.571 0.261 setrgbcolor
gsave
345.4 228.4 55.71 32.63 clipbox
195.107 116.509 p0_0
gsave
fill
grestore
stroke
grestore
0.991 0.551 0.233 setrgbcolor
gsave
345.4 228.4 55.71 32.63 clipbox
198.053 111.445 p0_0
gsave
fill
grestore
stroke
grestore
0.983 0.524 0.203 setrgbcolor
gsave
345.4 228.4 55.71 32.63 clipbox
239.521 152.59 p0_0
gsave
fill
grestore
stroke
grestore
0.975 0.502 0.177 setrgbcolor
gsave
345.4 228.4 55.71 32.63 clipbox
241.167 152.369 p0_0
gsave
fill
grestore
stroke
grestore
0.968 0.480 0.152 setrgbcolor
gsave
345.4 228.4 55.71 32.63 clipbox
244.088 144.087 p0_0
gsave
fill
grestore
stroke
grestore
0.959 0.453 0.122 setrgbcolor
gsave
345.4 228.4 55.71 32.63 clipbox
246.173 150.911 p0_0
gsave
fill
grestore
stroke
grestore
0.952 0.431 0.097 setrgbcolor
gsave
345.4 228.4 55.71 32.63 clipbox
243.942 150.71 p0_0
gsave
fill
grestore
stroke
grestore
0.943 0.409 0.073 setrgbcolor
gsave
345.4 228.4 55.71 32.63 clipbox
244.58 149.219 p0_0
gsave
fill
grestore
stroke
grestore
0.928 0.389 0.062 setrgbcolor
gsave
345.4 228.4 55.71 32.63 clipbox
264.452 149.862 p0_0
gsave
fill
grestore
stroke
grestore
0.911 0.365 0.049 setrgbcolor
gsave
345.4 228.4 55.71 32.63 clipbox
265.552 149.503 p0_0
gsave
fill
grestore
stroke
grestore
0.896 0.344 0.038 setrgbcolor
gsave
345.4 228.4 55.71 32.63 clipbox
268.715 146.771 p0_0
gsave
fill
grestore
stroke
grestore
0.881 0.324 0.027 setrgbcolor
gsave
345.4 228.4 55.71 32.63 clipbox
268.292 146.322 p0_0
gsave
fill
grestore
stroke
grestore
0.864 0.300 0.013 setrgbcolor
gsave
345.4 228.4 55.71 32.63 clipbox
271.434 145.537 p0_0
gsave
fill
grestore
stroke
grestore
0.846 0.281 0.004 setrgbcolor
gsave
345.4 228.4 55.71 32.63 clipbox
269.892 145.877 p0_0
gsave
fill
grestore
stroke
grestore
0.815 0.270 0.005 setrgbcolor
gsave
345.4 228.4 55.71 32.63 clipbox
294.217 139.215 p0_0
gsave
fill
grestore
stroke
grestore
0.777 0.256 0.007 setrgbcolor
gsave
345.4 228.4 55.71 32.63 clipbox
293.396 141.901 p0_0
gsave
fill
grestore
stroke
grestore
0.746 0.245 0.008 setrgbcolor
gsave
345.4 228.4 55.71 32.63 clipbox
293.646 142.104 p0_0
gsave
fill
grestore
stroke
grestore
0.715 0.234 0.009 setrgbcolor
gsave
345.4 228.4 55.71 32.63 clipbox
293.377 143.371 p0_0
gsave
fill
grestore
stroke
grestore
0.683 0.223 0.011 setrgbcolor
gsave
345.4 228.4 55.71 32.63 clipbox
293.341 144.006 p0_0
gsave
fill
grestore
stroke
grestore
0.647 0.210 0.012 setrgbcolor
gsave
345.4 228.4 55.71 32.63 clipbox
293.224 144.346 p0_0
gsave
fill
grestore
stroke
grestore
0.623 0.201 0.012 setrgbcolor
gsave
345.4 228.4 55.71 32.63 clipbox
294.671 135.752 p0_0
gsave
fill
grestore
stroke
grestore
0.599 0.192 0.013 setrgbcolor
gsave
345.4 228.4 55.71 32.63 clipbox
293.706 137.447 p0_0
gsave
fill
grestore
stroke
grestore
0.570 0.181 0.014 setrgbcolor
gsave
345.4 228.4 55.71 32.63 clipbox
294.365 137.759 p0_0
gsave
fill
grestore
stroke
grestore
0.546 0.171 0.014 setrgbcolor
gsave
345.4 228.4 55.71 32.63 clipbox
293.885 139.615 p0_0
gsave
fill
grestore
stroke
grestore
0.522 0.162 0.015 setrgbcolor
gsave
345.4 228.4 55.71 32.63 clipbox
293.37 139.897 p0_0
gsave
fill
grestore
stroke
grestore
0.498 0.153 0.016 setrgbcolor
gsave
345.4 228.4 55.71 32.63 clipbox
293.344 140.246 p0_0
gsave
fill
grestore
stroke
grestore
0.711 setgray
gsave
345.4 228.4 55.71 32.63 clipbox
326.755 148.282 p0_0
gsave
fill
grestore
stroke
grestore
0.687 setgray
gsave
345.4 228.4 55.71 32.63 clipbox
319.125 149.894 p0_0
gsave
fill
grestore
stroke
grestore
0.663 setgray
gsave
345.4 228.4 55.71 32.63 clipbox
326.302 149.143 p0_0
gsave
fill
grestore
stroke
grestore
0.634 setgray
gsave
345.4 228.4 55.71 32.63 clipbox
316.129 149.769 p0_0
gsave
fill
grestore
stroke
grestore
0.610 setgray
gsave
345.4 228.4 55.71 32.63 clipbox
313.092 152.741 p0_0
gsave
fill
grestore
stroke
grestore
0.586 setgray
gsave
345.4 228.4 55.71 32.63 clipbox
324.051 153.869 p0_0
gsave
fill
grestore
stroke
grestore
0.560 setgray
gsave
345.4 228.4 55.71 32.63 clipbox
327.891 151.067 p0_0
gsave
fill
grestore
stroke
grestore
0.539 setgray
gsave
345.4 228.4 55.71 32.63 clipbox
326.026 152.129 p0_0
gsave
fill
grestore
stroke
grestore
0.517 setgray
gsave
345.4 228.4 55.71 32.63 clipbox
317.34 151.906 p0_0
gsave
fill
grestore
stroke
grestore
0.491 setgray
gsave
345.4 228.4 55.71 32.63 clipbox
323.433 152.647 p0_0
gsave
fill
grestore
stroke
grestore
0.470 setgray
gsave
345.4 228.4 55.71 32.63 clipbox
326.986 153.629 p0_0
gsave
fill
grestore
stroke
grestore
0.448 setgray
gsave
345.4 228.4 55.71 32.63 clipbox
324.325 155.197 p0_0
gsave
fill
grestore
stroke
grestore
0.428 setgray
gsave
345.4 228.4 55.71 32.63 clipbox
325.701 152.595 p0_0
gsave
fill
grestore
stroke
grestore
0.404 setgray
gsave
345.4 228.4 55.71 32.63 clipbox
334.389 153.215 p0_0
gsave
fill
grestore
stroke
grestore
0.383 setgray
gsave
345.4 228.4 55.71 32.63 clipbox
325.707 156.036 p0_0
gsave
fill
grestore
stroke
grestore
0.363 setgray
gsave
345.4 228.4 55.71 32.63 clipbox
331.641 155.024 p0_0
gsave
fill
grestore
stroke
grestore
0.339 setgray
gsave
345.4 228.4 55.71 32.63 clipbox
335.302 157.196 p0_0
gsave
fill
grestore
stroke
grestore
0.317 setgray
gsave
345.4 228.4 55.71 32.63 clipbox
330.545 157.47 p0_0
gsave
fill
grestore
stroke
grestore
0.290 setgray
gsave
345.4 228.4 55.71 32.63 clipbox
337.448 159.756 p0_0
gsave
fill
grestore
stroke
grestore
0.257 setgray
gsave
345.4 228.4 55.71 32.63 clipbox
329.091 160.651 p0_0
gsave
fill
grestore
stroke
grestore
0.229 setgray
gsave
345.4 228.4 55.71 32.63 clipbox
330.611 161.87 p0_0
gsave
fill
grestore
stroke
grestore
0.201 setgray
gsave
345.4 228.4 55.71 32.63 clipbox
332.558 160.881 p0_0
gsave
fill
grestore
stroke
grestore
0.173 setgray
gsave
345.4 228.4 55.71 32.63 clipbox
329.798 163.89 p0_0
gsave
fill
grestore
stroke
grestore
0.141 setgray
gsave
345.4 228.4 55.71 32.63 clipbox
330.741 162.699 p0_0
gsave
fill
grestore
stroke
grestore
0.118 setgray
gsave
345.4 228.4 55.71 32.63 clipbox
333.397 160.311 p0_0
gsave
fill
grestore
stroke
grestore
0.096 setgray
gsave
345.4 228.4 55.71 32.63 clipbox
324.186 162.38 p0_0
gsave
fill
grestore
stroke
grestore
0.068 setgray
gsave
345.4 228.4 55.71 32.63 clipbox
326.71 164.014 p0_0
gsave
fill
grestore
stroke
grestore
0.046 setgray
gsave
345.4 228.4 55.71 32.63 clipbox
331.38 163.864 p0_0
gsave
fill
grestore
stroke
grestore
0.023 setgray
gsave
345.4 228.4 55.71 32.63 clipbox
325.882 163.749 p0_0
gsave
fill
grestore
stroke
grestore
0.000 setgray
gsave
345.4 228.4 55.71 32.63 clipbox
324.528 166.202 p0_0
gsave
fill
grestore
stroke
grestore

end
showpage
