node1,node2,weight
arg,dza,1
arg,ago,1
aut,alb,1
aut,dza,1
aut,aus,1
aze,aut,1
bgd,arg,1
bgd,aus,1
bgd,aut,1
blr,aut,1
bel,alb,1
bel,dza,1
bel,ago,1
bel,arg,1
bel,aus,1
bel,aut,1
bel,aze,1
bel,blr,1
bol,arg,1
bol,aus,1
bol,aut,1
bih,aus,1
bih,aut,1
bih,bel,1
bra,alb,1
bra,dza,1
bra,ago,1
bra,arg,1
bra,bgd,1
bra,blr,1
bra,bol,1
bgr,alb,1
bgr,dza,1
bgr,arg,1
bgr,aus,1
bgr,aut,1
bgr,aze,1
bgr,blr,1
bgr,bih,1
khm,bel,1
khm,bra,1
cmr,dza,1
cmr,aut,1
can,alb,1
can,dza,1
can,ago,1
can,aus,1
can,aut,1
can,blr,1
can,bel,1
can,bgr,1
can,khm,1
can,cmr,1
chl,arg,1
chl,aus,1
chl,bol,1
chl,bgr,1
chn,ago,1
chn,blr,1
chn,bel,1
chn,bol,1
chn,khm,1
chn,cmr,1
hkg,dza,1
hkg,aus,1
hkg,aut,1
hkg,khm,1
hkg,can,1
hkg,chl,1
hkg,chn,1
col,ago,1
col,arg,1
col,aus,1
col,aut,1
col,bol,1
col,bra,1
col,bgr,1
col,chn,1
cog,dza,1
cog,arg,1
cog,aut,1
cog,bel,1
cog,bra,1
cog,can,1
cog,chl,1
cog,chn,1
cog,col,1
cri,arg,1
cri,aus,1
cri,bel,1
cri,can,1
cri,chn,1
cri,col,1
civ,dza,1
civ,arg,1
civ,aus,1
civ,bra,1
civ,can,1
hrv,dza,1
hrv,aus,1
hrv,aut,1
hrv,bel,1
hrv,bra,1
hrv,bgr,1
hrv,col,1
cub,arg,1
cub,aus,1
cub,bel,1
cub,bra,1
cub,can,1
cub,chn,1
cub,hkg,1
cub,col,1
cze,alb,1
cze,dza,1
cze,aus,1
cze,aze,1
cze,bgd,1
cze,blr,1
cze,bel,1
cze,bol,1
cze,bih,1
cze,bra,1
cze,bgr,1
cze,cmr,1
cze,hkg,1
cze,col,1
cze,cog,1
cze,cri,1
cze,hrv,1
cze,cub,1
dnk,alb,1
dnk,dza,1
dnk,ago,1
dnk,arg,1
dnk,aus,1
dnk,aut,1
dnk,aze,1
dnk,bgd,1
dnk,blr,1
dnk,bel,1
dnk,bih,1
dnk,can,1
dnk,chl,1
dnk,chn,1
dnk,hkg,1
dnk,col,1
dnk,cog,1
dnk,cri,1
dnk,hrv,1
dnk,cub,1
dnk,cze,1
dom,arg,1
dom,aus,1
dom,aut,1
dom,bel,1
dom,can,1
dom,chl,1
dom,chn,1
dom,col,1
dom,dnk,1
ecu,arg,1
ecu,bol,1
ecu,cmr,1
ecu,can,1
ecu,chl,1
ecu,chn,1
ecu,col,1
ecu,cri,1
ecu,dnk,1
egy,arg,1
egy,aus,1
egy,bra,1
egy,bgr,1
egy,hkg,1
egy,col,1
egy,cze,1
egy,dnk,1
slv,aus,1
slv,bel,1
slv,bra,1
slv,can,1
slv,chn,1
slv,hkg,1
slv,col,1
slv,cze,1
slv,dnk,1
slv,ecu,1
est,dza,1
est,aus,1
est,aut,1
est,bel,1
est,bra,1
est,bgr,1
est,can,1
est,chl,1
est,chn,1
est,hkg,1
est,col,1
est,cze,1
est,dnk,1
eth,dza,1
eth,aus,1
eth,bel,1
eth,bra,1
eth,bgr,1
eth,can,1
eth,cze,1
eth,dnk,1
fin,alb,1
fin,dza,1
fin,aus,1
fin,aze,1
fin,blr,1
fin,bel,1
fin,bol,1
fin,bih,1
fin,bra,1
fin,bgr,1
fin,hkg,1
fin,cri,1
fin,civ,1
fin,hrv,1
fin,cub,1
fin,dnk,1
fin,dom,1
fin,egy,1
fin,slv,1
fin,est,1
fin,eth,1
fra,alb,1
fra,dza,1
fra,ago,1
fra,arg,1
fra,aze,1
fra,bgd,1
fra,blr,1
fra,bel,1
fra,bol,1
fra,bih,1
fra,bra,1
fra,khm,1
fra,cmr,1
fra,chn,1
fra,col,1
fra,cog,1
fra,cri,1
fra,civ,1
fra,cub,1
fra,dom,1
fra,egy,1
fra,slv,1
fra,est,1
fra,eth,1
gab,dza,1
gab,bel,1
gab,bra,1
gab,can,1
gab,chn,1
gab,dnk,1
gab,fra,1
geo,dza,1
geo,arg,1
geo,aut,1
geo,bel,1
geo,bgr,1
geo,cze,1
geo,dnk,1
geo,fra,1
deu,alb,1
deu,dza,1
deu,ago,1
deu,arg,1
deu,aus,1
deu,aut,1
deu,aze,1
deu,bgd,1
deu,blr,1
deu,bel,1
deu,bol,1
deu,bih,1
deu,bgr,1
deu,khm,1
deu,chn,1
deu,col,1
deu,cog,1
deu,cri,1
deu,hrv,1
deu,cub,1
deu,cze,1
deu,dnk,1
deu,dom,1
deu,ecu,1
deu,egy,1
deu,slv,1
deu,est,1
deu,eth,1
deu,fin,1
deu,fra,1
deu,gab,1
deu,geo,1
gha,aus,1
gha,aut,1
gha,bel,1
gha,bra,1
gha,bgr,1
gha,can,1
gha,chn,1
gha,hkg,1
gha,cze,1
gha,dnk,1
gha,fin,1
gha,fra,1
gha,deu,1
grc,alb,1
grc,dza,1
grc,arg,1
grc,aus,1
grc,aut,1
grc,aze,1
grc,blr,1
grc,bih,1
grc,bra,1
grc,bgr,1
grc,khm,1
grc,cmr,1
grc,can,1
grc,chl,1
grc,hkg,1
grc,col,1
grc,cog,1
grc,cri,1
grc,civ,1
grc,hrv,1
grc,cub,1
grc,cze,1
grc,dom,1
grc,egy,1
grc,est,1
grc,eth,1
grc,fra,1
grc,gab,1
grc,geo,1
grc,deu,1
gtm,arg,1
gtm,bgr,1
gtm,chn,1
gtm,hkg,1
gtm,col,1
gtm,dnk,1
gtm,ecu,1
gtm,fin,1
gtm,deu,1
gin,aut,1
gin,bel,1
gin,bra,1
gin,bgr,1
gin,can,1
gin,chn,1
gin,dnk,1
gin,fra,1
gin,deu,1
gin,grc,1
hnd,arg,1
hnd,aus,1
hnd,bel,1
hnd,bra,1
hnd,can,1
hnd,chl,1
hnd,chn,1
hnd,col,1
hnd,cze,1
hnd,dnk,1
hnd,ecu,1
hnd,fin,1
hnd,fra,1
hnd,deu,1
hun,alb,1
hun,dza,1
hun,ago,1
hun,aut,1
hun,aze,1
hun,bgd,1
hun,blr,1
hun,bel,1
hun,bih,1
hun,bgr,1
hun,can,1
hun,chn,1
hun,col,1
hun,cri,1
hun,civ,1
hun,hrv,1
hun,cub,1
hun,cze,1
hun,dnk,1
hun,dom,1
hun,ecu,1
hun,est,1
hun,eth,1
hun,fin,1
hun,fra,1
hun,gab,1
hun,geo,1
hun,deu,1
hun,grc,1
hun,gtm,1
hun,gin,1
hun,hnd,1
ind,dza,1
ind,arg,1
ind,bel,1
ind,bgr,1
ind,hkg,1
ind,col,1
ind,cze,1
ind,dnk,1
ind,ecu,1
ind,fin,1
ind,grc,1
ind,hun,1
idn,ago,1
idn,aus,1
idn,bgd,1
idn,bel,1
idn,bgr,1
idn,khm,1
idn,can,1
idn,chl,1
idn,col,1
idn,cog,1
idn,cri,1
idn,cze,1
idn,dnk,1
idn,dom,1
idn,slv,1
idn,est,1
idn,eth,1
idn,gab,1
idn,geo,1
idn,gha,1
irn,arg,1
irn,aus,1
irn,aut,1
irn,aze,1
irn,bgd,1
irn,blr,1
irn,can,1
irn,hkg,1
irn,cub,1
irn,cze,1
irn,fin,1
irn,fra,1
irn,geo,1
irn,ind,1
irl,ago,1
irl,aus,1
irl,aut,1
irl,aze,1
irl,blr,1
irl,bih,1
irl,khm,1
irl,cmr,1
irl,can,1
irl,chl,1
irl,hkg,1
irl,col,1
irl,cog,1
irl,cri,1
irl,civ,1
irl,hrv,1
irl,cub,1
irl,dnk,1
irl,dom,1
irl,egy,1
irl,slv,1
irl,est,1
irl,eth,1
irl,fin,1
irl,gab,1
irl,gha,1
irl,grc,1
irl,gtm,1
irl,gin,1
irl,hnd,1
irl,hun,1
irl,ind,1
irl,idn,1
isr,arg,1
isr,blr,1
isr,bel,1
isr,bol,1
isr,bih,1
isr,bgr,1
isr,can,1
isr,col,1
isr,cri,1
isr,hrv,1
isr,cze,1
isr,dnk,1
isr,dom,1
isr,ecu,1
isr,est,1
isr,eth,1
isr,gha,1
isr,grc,1
isr,hnd,1
isr,hun,1
isr,ind,1
isr,idn,1
isr,irl,1
ita,alb,1
ita,dza,1
ita,ago,1
ita,arg,1
ita,aus,1
ita,aze,1
ita,blr,1
ita,bih,1
ita,bgr,1
ita,chl,1
ita,hkg,1
ita,col,1
ita,cog,1
ita,cri,1
ita,hrv,1
ita,cub,1
ita,dom,1
ita,egy,1
ita,slv,1
ita,est,1
ita,eth,1
ita,fin,1
ita,gab,1
ita,geo,1
ita,deu,1
ita,gha,1
ita,gtm,1
ita,gin,1
ita,hnd,1
ita,hun,1
ita,irn,1
ita,irl,1
jam,arg,1
jam,bel,1
jam,bra,1
jam,can,1
jam,chn,1
jam,hkg,1
jam,col,1
jam,cze,1
jam,dnk,1
jam,fin,1
jam,fra,1
jam,deu,1
jam,grc,1
jam,idn,1
jam,irl,1
jam,isr,1
jam,ita,1
jpn,ago,1
jpn,aus,1
jpn,bgd,1
jpn,bel,1
jpn,khm,1
jpn,cmr,1
jpn,can,1
jpn,chn,1
jpn,hkg,1
jpn,col,1
jpn,cog,1
jpn,cub,1
jpn,cze,1
jpn,slv,1
jpn,gha,1
jpn,gtm,1
jpn,jam,1
jor,dza,1
jor,arg,1
jor,aus,1
jor,aut,1
jor,bgr,1
jor,can,1
jor,cze,1
jor,dnk,1
jor,deu,1
jor,grc,1
jor,hun,1
jor,idn,1
jor,irn,1
jor,irl,1
jor,isr,1
jor,ita,1
kaz,aut,1
kaz,aze,1
kaz,bgd,1
kaz,blr,1
kaz,bra,1
kaz,bgr,1
kaz,can,1
kaz,cog,1
kaz,civ,1
kaz,cub,1
kaz,cze,1
kaz,dnk,1
kaz,slv,1
kaz,est,1
kaz,fin,1
kaz,geo,1
kaz,deu,1
kaz,gha,1
kaz,grc,1
kaz,gtm,1
kaz,hun,1
kaz,ind,1
kaz,idn,1
kaz,irl,1
kaz,isr,1
ken,arg,1
ken,aus,1
ken,bel,1
ken,bgr,1
ken,can,1
ken,chn,1
ken,hkg,1
ken,col,1
ken,cze,1
ken,dnk,1
ken,fra,1
ken,deu,1
ken,grc,1
ken,hun,1
ken,idn,1
ken,irn,1
ken,irl,1
ken,isr,1
ken,ita,1
ken,jpn,1
kor,ago,1
kor,aus,1
kor,aze,1
kor,bgd,1
kor,blr,1
kor,bel,1
kor,bol,1
kor,bra,1
kor,bgr,1
kor,khm,1
kor,can,1
kor,chl,1
kor,chn,1
kor,hkg,1
kor,col,1
kor,hrv,1
kor,dnk,1
kor,ecu,1
kor,est,1
kor,eth,1
kor,gab,1
kor,gha,1
kor,gtm,1
kor,gin,1
kor,hun,1
kor,idn,1
kor,irl,1
kor,isr,1
kor,ita,1
kor,jam,1
kor,jor,1
kor,kaz,1
kor,ken,1
kwt,aus,1
kwt,bel,1
kwt,can,1
kwt,chn,1
kwt,col,1
kwt,cze,1
kwt,dnk,1
kwt,egy,1
kwt,fin,1
kwt,deu,1
kwt,gtm,1
kwt,ind,1
kwt,irl,1
kwt,ita,1
kwt,jpn,1
kwt,jor,1
kwt,kor,1
kgz,dza,1
kgz,bel,1
kgz,can,1
kgz,chn,1
kgz,cze,1
kgz,dnk,1
kgz,fin,1
kgz,fra,1
kgz,deu,1
kgz,grc,1
kgz,hun,1
kgz,irn,1
kgz,kaz,1
lao,dza,1
lao,aus,1
lao,bel,1
lao,bgr,1
lao,cze,1
lao,dnk,1
lao,fin,1
lao,fra,1
lao,deu,1
lao,hun,1
lao,idn,1
lao,irl,1
lao,jpn,1
lva,arg,1
lva,aut,1
lva,bel,1
lva,bra,1
lva,bgr,1
lva,can,1
lva,chl,1
lva,chn,1
lva,cze,1
lva,dnk,1
lva,fin,1
lva,fra,1
lva,deu,1
lva,grc,1
lva,hun,1
lva,irl,1
lva,isr,1
lva,ita,1
lva,jpn,1
lva,kor,1
lbn,arg,1
lbn,aus,1
lbn,aut,1
lbn,bel,1
lbn,bra,1
lbn,bgr,1
lbn,col,1
lbn,cze,1
lbn,dnk,1
lbn,fin,1
lbn,fra,1
lbn,deu,1
lbn,grc,1
lbn,hun,1
lbn,irn,1
lbn,irl,1
lbn,jpn,1
lbn,kor,1
lbr,dza,1
lbr,bel,1
lbr,bra,1
lbr,can,1
lbr,chn,1
lbr,col,1
lbr,cze,1
lbr,dnk,1
lbr,fra,1
lbr,deu,1
lbr,grc,1
lbr,irl,1
lbr,ita,1
lby,arg,1
lby,aut,1
lby,bel,1
lby,bra,1
lby,bgr,1
lby,can,1
lby,col,1
lby,dnk,1
lby,fra,1
lby,grc,1
lby,hun,1
lby,irl,1
lby,kor,1
ltu,aus,1
ltu,bel,1
ltu,bgr,1
ltu,can,1
ltu,chn,1
ltu,col,1
ltu,cze,1
ltu,dnk,1
ltu,fin,1
ltu,fra,1
ltu,deu,1
ltu,grc,1
ltu,hun,1
ltu,isr,1
ltu,ita,1
ltu,kaz,1
ltu,kor,1
mdg,dza,1
mdg,arg,1
mdg,aus,1
mdg,bel,1
mdg,bra,1
mdg,can,1
mdg,chn,1
mdg,hkg,1
mdg,col,1
mdg,dnk,1
mdg,fin,1
mdg,fra,1
mdg,deu,1
mdg,hun,1
mdg,idn,1
mdg,ita,1
mdg,jpn,1
mwi,arg,1
mwi,aus,1
mwi,bel,1
mwi,can,1
mwi,cze,1
mwi,dnk,1
mwi,ecu,1
mwi,fin,1
mwi,fra,1
mwi,deu,1
mwi,grc,1
mwi,hun,1
mwi,irl,1
mwi,jpn,1
mwi,kaz,1
mys,alb,1
mys,dza,1
mys,ago,1
mys,arg,1
mys,aus,1
mys,bgd,1
mys,bol,1
mys,khm,1
mys,chl,1
mys,hkg,1
mys,cub,1
mys,cze,1
mys,dnk,1
mys,dom,1
mys,ecu,1
mys,egy,1
mys,slv,1
mys,est,1
mys,eth,1
mys,gha,1
mys,grc,1
mys,gtm,1
mys,gin,1
mys,hun,1
mys,ind,1
mys,idn,1
mys,irn,1
mys,irl,1
mys,ita,1
mys,jam,1
mys,jpn,1
mys,jor,1
mys,kaz,1
mys,ken,1
mys,kor,1
mys,kwt,1
mys,lao,1
mys,lva,1
mys,lbn,1
mys,lbr,1
mys,ltu,1
mys,mdg,1
mli,dza,1
mli,bel,1
mli,bra,1
mli,chn,1
mli,cze,1
mli,fra,1
mli,deu,1
mli,grc,1
mli,hun,1
mli,irl,1
mli,ita,1
mli,jpn,1
mli,kor,1
mli,mys,1
mrt,dza,1
mrt,bel,1
mrt,bra,1
mrt,bgr,1
mrt,can,1
mrt,chn,1
mrt,hkg,1
mrt,fin,1
mrt,fra,1
mrt,deu,1
mrt,grc,1
mrt,idn,1
mrt,irl,1
mrt,ita,1
mus,arg,1
mus,aus,1
mus,aut,1
mus,bel,1
mus,bgr,1
mus,can,1
mus,chn,1
mus,dnk,1
mus,fin,1
mus,deu,1
mus,grc,1
mus,irl,1
mus,isr,1
mus,ita,1
mus,jpn,1
mus,mys,1
mex,alb,1
mex,dza,1
mex,ago,1
mex,arg,1
mex,aus,1
mex,bel,1
mex,chn,1
mex,hkg,1
mex,col,1
mex,cog,1
mex,cri,1
mex,cze,1
mex,dom,1
mex,ecu,1
mex,slv,1
mex,fra,1
mex,grc,1
mex,gtm,1
mex,hnd,1
mex,idn,1
mex,irn,1
mex,irl,1
mex,isr,1
mex,ita,1
mex,jam,1
mex,jpn,1
mex,kaz,1
mex,ken,1
mex,lbr,1
mex,ltu,1
mex,mdg,1
mex,mys,1
mex,mli,1
mng,bel,1
mng,bgr,1
mng,chn,1
mng,hkg,1
mng,cze,1
mng,dnk,1
mng,fin,1
mng,fra,1
mng,deu,1
mng,grc,1
mng,hun,1
mng,ita,1
mng,jpn,1
mng,kaz,1
mng,kor,1
mng,mex,1
mar,dza,1
mar,ago,1
mar,bih,1
mar,bra,1
mar,bgr,1
mar,cmr,1
mar,hkg,1
mar,cog,1
mar,cri,1
mar,civ,1
mar,hrv,1
mar,cze,1
mar,dom,1
mar,egy,1
mar,slv,1
mar,eth,1
mar,gab,1
mar,deu,1
mar,gha,1
mar,gin,1
mar,hnd,1
mar,hun,1
mar,irn,1
mar,isr,1
mar,jor,1
mar,ken,1
mar,kor,1
mar,kwt,1
mar,lbn,1
mar,lbr,1
mar,ltu,1
mar,mdg,1
mar,mli,1
mar,mrt,1
mar,mus,1
moz,arg,1
moz,aut,1
moz,bel,1
moz,bra,1
moz,can,1
moz,chn,1
moz,hkg,1
moz,fin,1
moz,fra,1
moz,deu,1
moz,grc,1
moz,hun,1
moz,idn,1
moz,irl,1
moz,ita,1
moz,jpn,1
moz,mys,1
moz,mar,1
nld,alb,1
nld,dza,1
nld,ago,1
nld,arg,1
nld,aze,1
nld,bgd,1
nld,blr,1
nld,bih,1
nld,bgr,1
nld,khm,1
nld,cmr,1
nld,chl,1
nld,chn,1
nld,hkg,1
nld,col,1
nld,cog,1
nld,cri,1
nld,hrv,1
nld,cub,1
nld,cze,1
nld,dnk,1
nld,dom,1
nld,ecu,1
nld,egy,1
nld,slv,1
nld,est,1
nld,eth,1
nld,fin,1
nld,gab,1
nld,geo,1
nld,deu,1
nld,gha,1
nld,grc,1
nld,gtm,1
nld,gin,1
nld,hnd,1
nld,hun,1
nld,isr,1
nld,jam,1
nld,kaz,1
nld,ken,1
nld,kwt,1
nld,kgz,1
nld,lva,1
nld,lbn,1
nld,lbr,1
nld,lby,1
nld,ltu,1
nld,mdg,1
nld,mwi,1
nld,mys,1
nld,mli,1
nld,mrt,1
nld,mus,1
nld,mng,1
nld,moz,1
nzl,alb,1
nzl,dza,1
nzl,ago,1
nzl,aus,1
nzl,bgd,1
nzl,bol,1
nzl,khm,1
nzl,can,1
nzl,hkg,1
nzl,col,1
nzl,cri,1
nzl,cub,1
nzl,dom,1
nzl,ecu,1
nzl,egy,1
nzl,slv,1
nzl,geo,1
nzl,gha,1
nzl,grc,1
nzl,gtm,1
nzl,hnd,1
nzl,hun,1
nzl,irn,1
nzl,jam,1
nzl,jpn,1
nzl,jor,1
nzl,kaz,1
nzl,ken,1
nzl,kwt,1
nzl,lao,1
nzl,lva,1
nzl,lbn,1
nzl,lby,1
nzl,mdg,1
nzl,mwi,1
nzl,mus,1
nzl,mex,1
nzl,mar,1
nzl,moz,1
nic,aus,1
nic,aut,1
nic,bel,1
nic,bgr,1
nic,can,1
nic,chl,1
nic,chn,1
nic,col,1
nic,cze,1
nic,dnk,1
nic,ecu,1
nic,fin,1
nic,fra,1
nic,deu,1
nic,hun,1
nic,idn,1
nic,irl,1
nic,ita,1
nic,kor,1
nic,mex,1
nic,mar,1
nic,nld,1
nga,alb,1
nga,arg,1
nga,aut,1
nga,blr,1
nga,bel,1
nga,bra,1
nga,bgr,1
nga,cmr,1
nga,chl,1
nga,chn,1
nga,hkg,1
nga,cog,1
nga,civ,1
nga,cze,1
nga,dnk,1
nga,ecu,1
nga,egy,1
nga,fin,1
nga,fra,1
nga,gab,1
nga,deu,1
nga,gha,1
nga,gin,1
nga,hun,1
nga,ind,1
nga,idn,1
nga,irl,1
nga,isr,1
nga,ita,1
nga,jpn,1
nga,jor,1
nga,ken,1
nga,kor,1
nga,lao,1
nga,mdg,1
nga,mwi,1
nga,mrt,1
nga,mus,1
nga,mex,1
nga,nld,1
nga,nzl,1
nga,nic,1
nor,dza,1
nor,ago,1
nor,aus,1
nor,aut,1
nor,bgd,1
nor,blr,1
nor,bol,1
nor,can,1
nor,chn,1
nor,hkg,1
nor,col,1
nor,cog,1
nor,cri,1
nor,hrv,1
nor,cub,1
nor,cze,1
nor,dnk,1
nor,dom,1
nor,slv,1
nor,est,1
nor,eth,1
nor,fra,1
nor,gab,1
nor,deu,1
nor,grc,1
nor,hnd,1
nor,hun,1
nor,ind,1
nor,irl,1
nor,isr,1
nor,ita,1
nor,jam,1
nor,jpn,1
nor,ken,1
nor,lva,1
nor,lbn,1
nor,ltu,1
nor,mys,1
nor,mrt,1
nor,mex,1
nor,mar,1
nor,moz,1
nor,nld,1
nor,nic,1
omn,aus,1
omn,bgd,1
omn,bel,1
omn,chl,1
omn,chn,1
omn,hkg,1
omn,cri,1
omn,dnk,1
omn,egy,1
omn,fra,1
omn,geo,1
omn,grc,1
omn,gtm,1
omn,ind,1
omn,jor,1
omn,kor,1
omn,lbn,1
omn,mys,1
omn,mar,1
omn,nld,1
omn,nzl,1
pak,aus,1
pak,aze,1
pak,bgd,1
pak,blr,1
pak,bel,1
pak,khm,1
pak,cmr,1
pak,hkg,1
pak,cog,1
pak,civ,1
pak,dnk,1
pak,egy,1
pak,eth,1
pak,fra,1
pak,deu,1
pak,gha,1
pak,gtm,1
pak,hun,1
pak,ind,1
pak,idn,1
pak,irl,1
pak,ita,1
pak,jpn,1
pak,jor,1
pak,ken,1
pak,kor,1
pak,lao,1
pak,lbn,1
pak,lby,1
pak,ltu,1
pak,mdg,1
pak,mwi,1
pak,mrt,1
pak,mus,1
pak,mng,1
pak,mar,1
pak,nld,1
pak,nzl,1
pak,nor,1
pan,arg,1
pan,aut,1
pan,bel,1
pan,bgr,1
pan,col,1
pan,cze,1
pan,dnk,1
pan,ecu,1
pan,grc,1
pan,hun,1
pan,isr,1
pan,ita,1
pan,kaz,1
pan,nzl,1
pan,nga,1
pan,nor,1
png,aus,1
png,bgr,1
png,chn,1
png,hkg,1
png,dnk,1
png,deu,1
png,idn,1
png,kor,1
png,mys,1
png,nld,1
png,nzl,1
pry,arg,1
pry,bel,1
pry,bra,1
pry,can,1
pry,chn,1
pry,hkg,1
pry,col,1
pry,dnk,1
pry,grc,1
pry,irn,1
pry,mex,1
pry,nld,1
pry,nor,1
per,alb,1
per,dza,1
per,arg,1
per,aus,1
per,bol,1
per,bgr,1
per,cmr,1
per,chn,1
per,hkg,1
per,col,1
per,cri,1
per,hrv,1
per,cub,1
per,cze,1
per,dnk,1
per,dom,1
per,ecu,1
per,slv,1
per,fin,1
per,deu,1
per,gha,1
per,gtm,1
per,hnd,1
per,hun,1
per,ind,1
per,irn,1
per,irl,1
per,isr,1
per,jam,1
per,kaz,1
per,kor,1
per,lva,1
per,lbn,1
per,lbr,1
per,ltu,1
per,mdg,1
per,mwi,1
per,mys,1
per,mli,1
per,mus,1
per,mex,1
per,mar,1
per,nld,1
per,nic,1
per,nga,1
per,nor,1
per,omn,1
per,pan,1
per,png,1
per,pry,1
phl,dza,1
phl,ago,1
phl,arg,1
phl,aus,1
phl,bgd,1
phl,khm,1
phl,can,1
phl,chl,1
phl,chn,1
phl,col,1
phl,civ,1
phl,cze,1
phl,dnk,1
phl,fin,1
phl,deu,1
phl,hun,1
phl,ind,1
phl,irl,1
phl,ita,1
phl,jam,1
phl,kaz,1
phl,kwt,1
phl,lbn,1
phl,mli,1
phl,mrt,1
phl,mus,1
phl,mex,1
phl,moz,1
phl,nld,1
phl,nzl,1
phl,nic,1
phl,nor,1
phl,omn,1
phl,pak,1
phl,png,1
pol,dza,1
pol,ago,1
pol,arg,1
pol,aus,1
pol,aut,1
pol,aze,1
pol,bgd,1
pol,blr,1
pol,bol,1
pol,bih,1
pol,bra,1
pol,bgr,1
pol,cmr,1
pol,hkg,1
pol,cri,1
pol,civ,1
pol,hrv,1
pol,cub,1
pol,cze,1
pol,dnk,1
pol,egy,1
pol,slv,1
pol,est,1
pol,eth,1
pol,fin,1
pol,geo,1
pol,gha,1
pol,grc,1
pol,gtm,1
pol,gin,1
pol,hun,1
pol,ind,1
pol,idn,1
pol,irl,1
pol,isr,1
pol,ita,1
pol,jam,1
pol,jpn,1
pol,jor,1
pol,kaz,1
pol,kwt,1
pol,kgz,1
pol,lva,1
pol,lbn,1
pol,lbr,1
pol,lby,1
pol,ltu,1
pol,mdg,1
pol,mwi,1
pol,mys,1
pol,mli,1
pol,mrt,1
pol,mng,1
pol,mar,1
pol,nld,1
pol,nic,1
pol,nga,1
pol,nor,1
pol,pak,1
pol,pan,1
pol,png,1
pol,pry,1
pol,per,1
pol,phl,1
prt,ago,1
prt,aus,1
prt,aze,1
prt,bgd,1
prt,bih,1
prt,col,1
prt,cog,1
prt,cri,1
prt,hrv,1
prt,cub,1
prt,dom,1
prt,egy,1
prt,slv,1
prt,est,1
prt,fin,1
prt,fra,1
prt,grc,1
prt,gtm,1
prt,gin,1
prt,hnd,1
prt,hun,1
prt,irn,1
prt,jam,1
prt,jpn,1
prt,jor,1
prt,ken,1
prt,kwt,1
prt,lbn,1
prt,ltu,1
prt,mdg,1
prt,mwi,1
prt,mli,1
prt,mrt,1
prt,mus,1
prt,mex,1
prt,moz,1
prt,nic,1
prt,nga,1
prt,nor,1
prt,pan,1
prt,pry,1
prt,pol,1
qat,aus,1
qat,aut,1
qat,bel,1
qat,bra,1
qat,can,1
qat,chl,1
qat,chn,1
qat,cze,1
qat,dnk,1
qat,fra,1
qat,deu,1
qat,irl,1
qat,ita,1
qat,jpn,1
qat,kor,1
qat,mys,1
qat,mex,1
qat,nld,1
qat,nzl,1
qat,pak,1
qat,phl,1
mda,aut,1
mda,bel,1
mda,bgr,1
mda,chl,1
mda,cze,1
mda,dnk,1
mda,fra,1
mda,deu,1
mda,grc,1
mda,hun,1
mda,isr,1
mda,ita,1
mda,kaz,1
mda,mys,1
mda,nld,1
mda,nor,1
mda,pol,1
mda,prt,1
rou,alb,1
rou,aus,1
rou,bgd,1
rou,blr,1
rou,bih,1
rou,bgr,1
rou,cmr,1
rou,col,1
rou,civ,1
rou,hrv,1
rou,cub,1
rou,cze,1
rou,egy,1
rou,slv,1
rou,est,1
rou,eth,1
rou,fin,1
rou,fra,1
rou,geo,1
rou,gha,1
rou,grc,1
rou,gtm,1
rou,gin,1
rou,hnd,1
rou,hun,1
rou,ind,1
rou,irn,1
rou,irl,1
rou,isr,1
rou,ita,1
rou,jor,1
rou,kaz,1
rou,ken,1
rou,kwt,1
rou,kgz,1
rou,lva,1
rou,lbn,1
rou,lby,1
rou,mwi,1
rou,mli,1
rou,mar,1
rou,moz,1
rou,nga,1
rou,pak,1
rou,pan,1
rou,per,1
rou,pol,1
rou,prt,1
rou,qat,1
rou,mda,1
rus,alb,1
rus,dza,1
rus,aut,1
rus,aze,1
rus,bgd,1
rus,bel,1
rus,bih,1
rus,can,1
rus,chl,1
rus,chn,1
rus,cri,1
rus,civ,1
rus,cze,1
rus,dnk,1
rus,egy,1
rus,slv,1
rus,est,1
rus,eth,1
rus,geo,1
rus,deu,1
rus,grc,1
rus,gin,1
rus,hun,1
rus,ind,1
rus,isr,1
rus,jam,1
rus,jor,1
rus,ken,1
rus,kor,1
rus,kgz,1
rus,lva,1
rus,lbn,1
rus,lbr,1
rus,ltu,1
rus,mwi,1
rus,mex,1
rus,mng,1
rus,mar,1
rus,moz,1
rus,nic,1
rus,nor,1
rus,pak,1
rus,pan,1
rus,per,1
rus,phl,1
rus,pol,1
rus,prt,1
rus,mda,1
sau,arg,1
sau,aus,1
sau,aze,1
sau,bra,1
sau,bgr,1
sau,khm,1
sau,can,1
sau,chl,1
sau,hkg,1
sau,cri,1
sau,hrv,1
sau,cze,1
sau,egy,1
sau,eth,1
sau,deu,1
sau,gha,1
sau,gtm,1
sau,ind,1
sau,irl,1
sau,jor,1
sau,kaz,1
sau,ken,1
sau,kwt,1
sau,lbn,1
sau,mwi,1
sau,nld,1
sau,nzl,1
sau,omn,1
sau,pry,1
sau,phl,1
sau,mda,1
sau,rou,1
sen,bel,1
sen,bra,1
sen,chn,1
sen,fra,1
sen,deu,1
sen,grc,1
sen,irl,1
sen,ita,1
sen,jpn,1
sen,mex,1
sen,mar,1
sen,nld,1
sen,nga,1
sen,prt,1
sgp,ago,1
sgp,aus,1
sgp,aze,1
sgp,bgd,1
sgp,bol,1
sgp,bih,1
sgp,bgr,1
sgp,khm,1
sgp,hkg,1
sgp,col,1
sgp,hrv,1
sgp,cze,1
sgp,dom,1
sgp,egy,1
sgp,est,1
sgp,eth,1
sgp,geo,1
sgp,gha,1
sgp,gtm,1
sgp,gin,1
sgp,hnd,1
sgp,idn,1
sgp,jam,1
sgp,ken,1
sgp,kwt,1
sgp,kgz,1
sgp,lao,1
sgp,lbn,1
sgp,lbr,1
sgp,lby,1
sgp,ltu,1
sgp,mdg,1
sgp,mys,1
sgp,mli,1
sgp,mng,1
sgp,moz,1
sgp,omn,1
sgp,pan,1
sgp,mda,1
svk,alb,1
svk,aut,1
svk,aze,1
svk,blr,1
svk,bel,1
svk,bih,1
svk,bgr,1
svk,can,1
svk,chn,1
svk,col,1
svk,hrv,1
svk,cze,1
svk,dnk,1
svk,slv,1
svk,est,1
svk,eth,1
svk,fin,1
svk,fra,1
svk,gha,1
svk,grc,1
svk,gtm,1
svk,hnd,1
svk,hun,1
svk,ind,1
svk,irl,1
svk,isr,1
svk,ita,1
svk,jpn,1
svk,jor,1
svk,kaz,1
svk,kor,1
svk,kgz,1
svk,lao,1
svk,lva,1
svk,lbn,1
svk,ltu,1
svk,mdg,1
svk,mwi,1
svk,nld,1
svk,nzl,1
svk,nic,1
svk,nor,1
svk,pan,1
svk,png,1
svk,pry,1
svk,phl,1
svk,pol,1
svk,mda,1
svk,rou,1
svk,rus,1
svk,sgp,1
svn,dza,1
svn,aus,1
svn,aut,1
svn,aze,1
svn,blr,1
svn,bel,1
svn,bih,1
svn,bgr,1
svn,can,1
svn,hkg,1
svn,cri,1
svn,civ,1
svn,hrv,1
svn,cze,1
svn,dnk,1
svn,ecu,1
svn,egy,1
svn,est,1
svn,fin,1
svn,fra,1
svn,deu,1
svn,grc,1
svn,gtm,1
svn,gin,1
svn,hnd,1
svn,hun,1
svn,ind,1
svn,idn,1
svn,irl,1
svn,isr,1
svn,ita,1
svn,jpn,1
svn,ken,1
svn,kor,1
svn,lby,1
svn,mwi,1
svn,mys,1
svn,mus,1
svn,mar,1
svn,nld,1
svn,nzl,1
svn,nor,1
svn,per,1
svn,phl,1
svn,pol,1
svn,rou,1
svn,sen,1
svn,svk,1
zaf,ago,1
zaf,can,1
zaf,hkg,1
zaf,cog,1
zaf,cri,1
zaf,hrv,1
zaf,dom,1
zaf,egy,1
zaf,est,1
zaf,eth,1
zaf,fin,1
zaf,gab,1
zaf,geo,1
zaf,gha,1
zaf,grc,1
zaf,gin,1
zaf,irn,1
zaf,isr,1
zaf,ita,1
zaf,jpn,1
zaf,ken,1
zaf,kwt,1
zaf,lva,1
zaf,lbn,1
zaf,lbr,1
zaf,lby,1
zaf,ltu,1
zaf,mdg,1
zaf,mwi,1
zaf,mys,1
zaf,mli,1
zaf,mus,1
zaf,mex,1
zaf,moz,1
zaf,nld,1
zaf,nzl,1
zaf,nga,1
zaf,nor,1
zaf,pak,1
zaf,pry,1
zaf,qat,1
zaf,rus,1
zaf,sau,1
zaf,svk,1
esp,alb,1
esp,dza,1
esp,ago,1
esp,arg,1
esp,aze,1
esp,bgd,1
esp,blr,1
esp,bel,1
esp,bol,1
esp,bih,1
esp,bgr,1
esp,khm,1
esp,cmr,1
esp,col,1
esp,cog,1
esp,cri,1
esp,hrv,1
esp,cub,1
esp,cze,1
esp,dnk,1
esp,dom,1
esp,egy,1
esp,slv,1
esp,est,1
esp,fin,1
esp,gab,1
esp,geo,1
esp,gha,1
esp,grc,1
esp,gtm,1
esp,gin,1
esp,hnd,1
esp,hun,1
esp,isr,1
esp,jam,1
esp,kaz,1
esp,ken,1
esp,kgz,1
esp,lao,1
esp,lva,1
esp,lbn,1
esp,lbr,1
esp,lby,1
esp,ltu,1
esp,mdg,1
esp,mli,1
esp,mrt,1
esp,mus,1
esp,mex,1
esp,mng,1
esp,mar,1
esp,moz,1
esp,nld,1
esp,nzl,1
esp,nic,1
esp,nga,1
esp,nor,1
esp,qat,1
esp,mda,1
esp,rus,1
esp,sau,1
esp,svk,1
lka,arg,1
lka,aus,1
lka,aut,1
lka,bel,1
lka,bra,1
lka,bgr,1
lka,can,1
lka,chn,1
lka,col,1
lka,cze,1
lka,dnk,1
lka,ecu,1
lka,fin,1
lka,deu,1
lka,grc,1
lka,hun,1
lka,idn,1
lka,irl,1
lka,kaz,1
lka,kor,1
lka,kwt,1
lka,mys,1
lka,mex,1
lka,nld,1
lka,nzl,1
lka,omn,1
lka,pak,1
lka,per,1
lka,phl,1
lka,pol,1
lka,rou,1
lka,sgp,1
lka,svk,1
lka,svn,1
lka,zaf,1
sdn,arg,1
sdn,bel,1
sdn,can,1
sdn,chn,1
sdn,dnk,1
sdn,fin,1
sdn,fra,1
sdn,deu,1
sdn,grc,1
sdn,idn,1
sdn,irl,1
sdn,jpn,1
sdn,kor,1
sdn,mys,1
sdn,mex,1
sdn,mar,1
sdn,nld,1
sdn,nzl,1
sdn,nor,1
sdn,pak,1
sdn,per,1
sdn,rou,1
sdn,zaf,1
sdn,esp,1
swe,alb,1
swe,ago,1
swe,aus,1
swe,aut,1
swe,aze,1
swe,bgd,1
swe,blr,1
swe,bel,1
swe,bih,1
swe,bgr,1
swe,hkg,1
swe,col,1
swe,cri,1
swe,hrv,1
swe,cze,1
swe,dom,1
swe,ecu,1
swe,slv,1
swe,est,1
swe,eth,1
swe,fin,1
swe,geo,1
swe,deu,1
swe,gha,1
swe,grc,1
swe,gtm,1
swe,gin,1
swe,hnd,1
swe,hun,1
swe,ind,1
swe,irn,1
swe,irl,1
swe,isr,1
swe,ita,1
swe,jam,1
swe,jor,1
swe,ken,1
swe,kwt,1
swe,lva,1
swe,lbn,1
swe,lby,1
swe,ltu,1
swe,mwi,1
swe,mys,1
swe,mus,1
swe,mex,1
swe,mar,1
swe,moz,1
swe,nld,1
swe,nic,1
swe,nga,1
swe,omn,1
swe,pak,1
swe,png,1
swe,pry,1
swe,phl,1
swe,pol,1
swe,qat,1
swe,rou,1
swe,rus,1
swe,sau,1
swe,svk,1
swe,svn,1
swe,zaf,1
swe,esp,1
swe,lka,1
swe,sdn,1
che,alb,1
che,dza,1
che,ago,1
che,arg,1
che,aus,1
che,blr,1
che,bel,1
che,bih,1
che,bra,1
che,bgr,1
che,khm,1
che,hkg,1
che,col,1
che,cri,1
che,hrv,1
che,cub,1
che,cze,1
che,dnk,1
che,dom,1
che,ecu,1
che,egy,1
che,slv,1
che,est,1
che,fin,1
che,deu,1
che,grc,1
che,gin,1
che,hnd,1
che,hun,1
che,ind,1
che,irn,1
che,irl,1
che,jam,1
che,jor,1
che,kaz,1
che,ken,1
che,kwt,1
che,lao,1
che,lva,1
che,lbn,1
che,lbr,1
che,lby,1
che,ltu,1
che,mwi,1
che,mrt,1
che,mus,1
che,mex,1
che,mng,1
che,mar,1
che,moz,1
che,nic,1
che,nga,1
che,nor,1
che,pak,1
che,pan,1
che,phl,1
che,pol,1
che,prt,1
che,qat,1
che,rou,1
che,sau,1
che,svn,1
che,zaf,1
che,lka,1
che,sdn,1
che,swe,1
syr,dza,1
syr,arg,1
syr,aut,1
syr,bel,1
syr,bgr,1
syr,can,1
syr,chl,1
syr,chn,1
syr,hkg,1
syr,col,1
syr,cze,1
syr,dnk,1
syr,ecu,1
syr,fin,1
syr,fra,1
syr,deu,1
syr,grc,1
syr,hun,1
syr,idn,1
syr,irl,1
syr,ita,1
syr,kor,1
syr,kwt,1
syr,mys,1
syr,mex,1
syr,mar,1
syr,nld,1
syr,nzl,1
syr,nga,1
syr,omn,1
syr,pak,1
syr,phl,1
syr,pol,1
syr,prt,1
syr,rou,1
syr,rus,1
syr,sgp,1
syr,svk,1
syr,esp,1
syr,swe,1
syr,che,1
mkd,aus,1
mkd,aut,1
mkd,bel,1
mkd,bra,1
mkd,bgr,1
mkd,can,1
mkd,chn,1
mkd,col,1
mkd,cze,1
mkd,dnk,1
mkd,fra,1
mkd,deu,1
mkd,grc,1
mkd,hun,1
mkd,idn,1
mkd,irl,1
mkd,isr,1
mkd,ita,1
mkd,mys,1
mkd,nld,1
mkd,nor,1
mkd,pol,1
mkd,rou,1
mkd,rus,1
mkd,sau,1
mkd,svk,1
mkd,svn,1
mkd,esp,1
mkd,swe,1
mkd,che,1
tjk,dza,1
tjk,aut,1
tjk,bel,1
tjk,bra,1
tjk,bgr,1
tjk,can,1
tjk,chn,1
tjk,fra,1
tjk,deu,1
tjk,grc,1
tjk,hun,1
tjk,irn,1
tjk,ita,1
tjk,kaz,1
tjk,mar,1
tjk,nld,1
tjk,nor,1
tjk,pak,1
tjk,pol,1
tjk,rou,1
tjk,rus,1
tjk,svk,1
tjk,svn,1
tjk,esp,1
tza,dza,1
tza,arg,1
tza,aus,1
tza,aut,1
tza,bel,1
tza,can,1
tza,chn,1
tza,hkg,1
tza,col,1
tza,dnk,1
tza,fin,1
tza,fra,1
tza,deu,1
tza,grc,1
tza,hun,1
tza,idn,1
tza,irn,1
tza,irl,1
tza,isr,1
tza,ita,1
tza,jpn,1
tza,kor,1
tza,mys,1
tza,mex,1
tza,mar,1
tza,nld,1
tza,nzl,1
tza,nga,1
tza,nor,1
tza,omn,1
tza,pak,1
tza,pol,1
tza,rou,1
tza,sau,1
tza,sgp,1
tza,svk,1
tza,svn,1
tza,zaf,1
tza,esp,1
tza,swe,1
tha,ago,1
tha,arg,1
tha,aus,1
tha,bgd,1
tha,blr,1
tha,bra,1
tha,khm,1
tha,cmr,1
tha,hkg,1
tha,cog,1
tha,cri,1
tha,civ,1
tha,hrv,1
tha,cze,1
tha,dom,1
tha,slv,1
tha,est,1
tha,eth,1
tha,fra,1
tha,gab,1
tha,geo,1
tha,gha,1
tha,gtm,1
tha,gin,1
tha,hnd,1
tha,hun,1
tha,ind,1
tha,irn,1
tha,irl,1
tha,ita,1
tha,jam,1
tha,jor,1
tha,ken,1
tha,kwt,1
tha,kgz,1
tha,lao,1
tha,lva,1
tha,lbr,1
tha,lby,1
tha,mdg,1
tha,mwi,1
tha,mli,1
tha,mrt,1
tha,mus,1
tha,mng,1
tha,mar,1
tha,moz,1
tha,nld,1
tha,nic,1
tha,nga,1
tha,nor,1
tha,pak,1
tha,png,1
tha,pol,1
tha,qat,1
tha,rus,1
tha,sau,1
tha,sen,1
tha,svn,1
tha,lka,1
tha,sdn,1
tha,swe,1
tha,syr,1
tha,tza,1
tto,aut,1
tto,bel,1
tto,bra,1
tto,can,1
tto,chl,1
tto,chn,1
tto,hkg,1
tto,col,1
tto,cze,1
tto,dnk,1
tto,ecu,1
tto,fin,1
tto,fra,1
tto,deu,1
tto,grc,1
tto,idn,1
tto,irl,1
tto,ita,1
tto,jpn,1
tto,mys,1
tto,mex,1
tto,mar,1
tto,nld,1
tto,nzl,1
tto,per,1
tto,prt,1
tto,sgp,1
tto,esp,1
tto,swe,1
tto,che,1
tto,tha,1
tun,dza,1
tun,arg,1
tun,aut,1
tun,bgd,1
tun,blr,1
tun,bel,1
tun,bgr,1
tun,cmr,1
tun,can,1
tun,cog,1
tun,cri,1
tun,hrv,1
tun,cub,1
tun,cze,1
tun,dnk,1
tun,dom,1
tun,eth,1
tun,gab,1
tun,gha,1
tun,grc,1
tun,gin,1
tun,hun,1
tun,ind,1
tun,irl,1
tun,ita,1
tun,jor,1
tun,ken,1
tun,kor,1
tun,kwt,1
tun,lbn,1
tun,lbr,1
tun,lby,1
tun,mdg,1
tun,mwi,1
tun,mys,1
tun,mli,1
tun,mrt,1
tun,mar,1
tun,nld,1
tun,nzl,1
tun,omn,1
tun,pak,1
tun,pan,1
tun,pol,1
tun,qat,1
tun,rou,1
tun,rus,1
tun,sau,1
tun,sen,1
tun,svk,1
tun,svn,1
tun,lka,1
tun,sdn,1
tun,swe,1
tun,che,1
tun,syr,1
tur,alb,1
tur,dza,1
tur,ago,1
tur,arg,1
tur,aut,1
tur,aze,1
tur,bgd,1
tur,blr,1
tur,bih,1
tur,bgr,1
tur,khm,1
tur,can,1
tur,chl,1
tur,col,1
tur,cog,1
tur,hrv,1
tur,cub,1
tur,cze,1
tur,dnk,1
tur,dom,1
tur,ecu,1
tur,egy,1
tur,slv,1
tur,est,1
tur,eth,1
tur,fin,1
tur,gab,1
tur,geo,1
tur,gha,1
tur,grc,1
tur,gtm,1
tur,gin,1
tur,hnd,1
tur,hun,1
tur,ind,1
tur,irl,1
tur,isr,1
tur,ita,1
tur,jam,1
tur,jpn,1
tur,jor,1
tur,kaz,1
tur,ken,1
tur,kwt,1
tur,kgz,1
tur,lao,1
tur,lva,1
tur,lbn,1
tur,lbr,1
tur,lby,1
tur,ltu,1
tur,mdg,1
tur,mwi,1
tur,mli,1
tur,mrt,1
tur,mus,1
tur,mng,1
tur,mar,1
tur,moz,1
tur,nld,1
tur,nzl,1
tur,nic,1
tur,nor,1
tur,omn,1
tur,pak,1
tur,pan,1
tur,pol,1
tur,qat,1
tur,mda,1
tur,rou,1
tur,rus,1
tur,sau,1
tur,svn,1
tur,esp,1
tur,lka,1
tur,sdn,1
tur,che,1
tur,syr,1
tur,mkd,1
tur,tjk,1
tur,tza,1
tur,tto,1
tur,tun,1
tkm,aut,1
tkm,bel,1
tkm,bgr,1
tkm,chn,1
tkm,cze,1
tkm,fra,1
tkm,deu,1
tkm,hun,1
tkm,idn,1
tkm,irn,1
tkm,irl,1
tkm,ita,1
tkm,kaz,1
tkm,kor,1
tkm,nld,1
tkm,nzl,1
tkm,pak,1
tkm,pol,1
tkm,rus,1
tkm,sgp,1
tkm,svk,1
tkm,esp,1
tkm,tur,1
gbr,alb,1
gbr,dza,1
gbr,ago,1
gbr,arg,1
gbr,aus,1
gbr,aze,1
gbr,blr,1
gbr,bel,1
gbr,bol,1
gbr,bgr,1
gbr,khm,1
gbr,chn,1
gbr,hkg,1
gbr,col,1
gbr,cog,1
gbr,hrv,1
gbr,cub,1
gbr,cze,1
gbr,dnk,1
gbr,dom,1
gbr,egy,1
gbr,slv,1
gbr,est,1
gbr,eth,1
gbr,fra,1
gbr,gab,1
gbr,geo,1
gbr,deu,1
gbr,gha,1
gbr,grc,1
gbr,gtm,1
gbr,gin,1
gbr,hnd,1
gbr,irl,1
gbr,jam,1
gbr,jpn,1
gbr,jor,1
gbr,ken,1
gbr,kwt,1
gbr,lao,1
gbr,lva,1
gbr,lbr,1
gbr,lby,1
gbr,ltu,1
gbr,mdg,1
gbr,mwi,1
gbr,mli,1
gbr,mrt,1
gbr,mus,1
gbr,mng,1
gbr,moz,1
gbr,nld,1
gbr,nic,1
gbr,nor,1
gbr,omn,1
gbr,pak,1
gbr,pry,1
gbr,per,1
gbr,qat,1
gbr,mda,1
gbr,rou,1
gbr,rus,1
gbr,svk,1
gbr,svn,1
gbr,zaf,1
gbr,lka,1
gbr,sdn,1
gbr,swe,1
gbr,che,1
gbr,syr,1
gbr,mkd,1
gbr,tza,1
gbr,tto,1
gbr,tun,1
gbr,tur,1
usa,dza,1
usa,ago,1
usa,arg,1
usa,aus,1
usa,khm,1
usa,can,1
usa,chn,1
usa,hkg,1
usa,col,1
usa,ecu,1
usa,fin,1
usa,fra,1
usa,geo,1
usa,deu,1
usa,grc,1
usa,gin,1
usa,irl,1
usa,jpn,1
usa,kaz,1
usa,kwt,1
usa,lva,1
usa,lbr,1
usa,mwi,1
usa,mex,1
usa,nor,1
usa,pry,1
usa,pol,1
usa,rus,1
usa,svk,1
usa,svn,1
usa,swe,1
usa,tun,1
usa,gbr,1
uga,dza,1
uga,arg,1
uga,aus,1
uga,aut,1
uga,bel,1
uga,can,1
uga,col,1
uga,cze,1
uga,dnk,1
uga,fra,1
uga,deu,1
uga,grc,1
uga,hun,1
uga,idn,1
uga,irn,1
uga,irl,1
uga,isr,1
uga,ita,1
uga,kaz,1
uga,nld,1
uga,nor,1
uga,pak,1
uga,pol,1
uga,prt,1
uga,rou,1
uga,rus,1
uga,sau,1
uga,sgp,1
uga,svk,1
uga,svn,1
uga,zaf,1
uga,tun,1
uga,gbr,1
ukr,dza,1
ukr,aut,1
ukr,bel,1
ukr,bgr,1
ukr,can,1
ukr,chn,1
ukr,col,1
ukr,cze,1
ukr,dnk,1
ukr,ecu,1
ukr,fin,1
ukr,fra,1
ukr,deu,1
ukr,grc,1
ukr,hun,1
ukr,idn,1
ukr,irn,1
ukr,irl,1
ukr,isr,1
ukr,ita,1
ukr,jpn,1
ukr,kor,1
ukr,mys,1
ukr,mar,1
ukr,nld,1
ukr,nga,1
ukr,nor,1
ukr,omn,1
ukr,pak,1
ukr,pol,1
ukr,rou,1
ukr,rus,1
ukr,sgp,1
ukr,svk,1
ukr,svn,1
ukr,zaf,1
ukr,esp,1
ukr,swe,1
ukr,che,1
ukr,tha,1
ukr,tun,1
ukr,tur,1
ukr,gbr,1
are,dza,1
are,arg,1
are,aus,1
are,bel,1
are,bra,1
are,bgr,1
are,chl,1
are,chn,1
are,hkg,1
are,cze,1
are,dnk,1
are,deu,1
are,grc,1
are,hun,1
are,idn,1
are,irl,1
are,ita,1
are,jpn,1
are,kor,1
are,kwt,1
are,mys,1
are,mar,1
are,nld,1
are,nor,1
are,omn,1
are,pak,1
are,per,1
are,phl,1
are,pol,1
are,prt,1
are,rou,1
are,sgp,1
are,svk,1
are,zaf,1
are,esp,1
are,swe,1
are,tha,1
are,tun,1
are,tur,1
ury,dza,1
ury,arg,1
ury,aus,1
ury,bra,1
ury,col,1
ury,cze,1
ury,dnk,1
ury,ecu,1
ury,fin,1
ury,deu,1
ury,irn,1
ury,irl,1
ury,isr,1
ury,mys,1
ury,mar,1
ury,nga,1
ury,nor,1
ury,per,1
ury,phl,1
ury,pol,1
ury,rus,1
ury,sau,1
ury,sgp,1
ury,svk,1
ury,zaf,1
ury,esp,1
ury,tur,1
uzb,aut,1
uzb,bel,1
uzb,bra,1
uzb,bgr,1
uzb,can,1
uzb,chn,1
uzb,cze,1
uzb,dnk,1
uzb,fin,1
uzb,fra,1
uzb,deu,1
uzb,grc,1
uzb,hun,1
uzb,idn,1
uzb,irn,1
uzb,ita,1
uzb,jpn,1
uzb,kaz,1
uzb,kor,1
uzb,mys,1
uzb,mar,1
uzb,nld,1
uzb,pak,1
uzb,pol,1
uzb,prt,1
uzb,rou,1
uzb,rus,1
uzb,sgp,1
uzb,svk,1
uzb,svn,1
uzb,esp,1
uzb,swe,1
uzb,che,1
uzb,tha,1
uzb,tun,1
uzb,tur,1
uzb,gbr,1
ven,arg,1
ven,bol,1
ven,bra,1
ven,bgr,1
ven,chl,1
ven,hkg,1
ven,col,1
ven,cri,1
ven,civ,1
ven,hrv,1
ven,cub,1
ven,cze,1
ven,dom,1
ven,ecu,1
ven,est,1
ven,fra,1
ven,gha,1
ven,gtm,1
ven,hnd,1
ven,ind,1
ven,irl,1
ven,ita,1
ven,jam,1
ven,jpn,1
ven,mys,1
ven,mex,1
ven,mar,1
ven,nzl,1
ven,nic,1
ven,nga,1
ven,nor,1
ven,pry,1
ven,per,1
ven,phl,1
ven,pol,1
ven,prt,1
ven,rou,1
ven,rus,1
ven,sgp,1
ven,svk,1
ven,zaf,1
ven,swe,1
ven,che,1
ven,syr,1
ven,tza,1
ven,tto,1
ven,tur,1
ven,gbr,1
ven,uga,1
ven,are,1
ven,ury,1
vnm,dza,1
vnm,aus,1
vnm,bra,1
vnm,bgr,1
vnm,can,1
vnm,chl,1
vnm,hkg,1
vnm,cze,1
vnm,fin,1
vnm,fra,1
vnm,deu,1
vnm,grc,1
vnm,hun,1
vnm,idn,1
vnm,irl,1
vnm,isr,1
vnm,jpn,1
vnm,kaz,1
vnm,kor,1
vnm,nld,1
vnm,nzl,1
vnm,pak,1
vnm,phl,1
vnm,pol,1
vnm,sgp,1
vnm,svn,1
vnm,swe,1
vnm,tha,1
vnm,tur,1
yem,arg,1
yem,aus,1
yem,aut,1
yem,bra,1
yem,can,1
yem,chn,1
yem,dnk,1
yem,fin,1
yem,fra,1
yem,deu,1
yem,grc,1
yem,hun,1
yem,idn,1
yem,irl,1
yem,ita,1
yem,jpn,1
yem,kor,1
yem,mys,1
yem,mar,1
yem,nld,1
yem,nzl,1
yem,pak,1
yem,pol,1
yem,zaf,1
yem,esp,1
yem,swe,1
yem,che,1
yem,tha,1
yem,tun,1
yem,tur,1
yem,gbr,1
zmb,aus,1
zmb,bel,1
zmb,can,1
zmb,dnk,1
zmb,fin,1
zmb,deu,1
zmb,irl,1
zmb,jpn,1
zmb,mys,1
zmb,mex,1
zmb,nld,1
zmb,nor,1
zmb,omn,1
zmb,pak,1
zmb,pol,1
zmb,sau,1
zmb,zaf,1
zmb,esp,1
zmb,swe,1
zmb,gbr,1
zwe,aus,1
zwe,bra,1
zwe,bgr,1
zwe,chn,1
zwe,col,1
zwe,dnk,1
zwe,fra,1
zwe,deu,1
zwe,hun,1
zwe,irn,1
zwe,irl,1
zwe,jpn,1
zwe,kaz,1
zwe,mys,1
zwe,nld,1
zwe,nzl,1
zwe,omn,1
zwe,pak,1
zwe,phl,1
zwe,prt,1
zwe,rus,1
zwe,zaf,1
zwe,che,1
zwe,tha,1
zwe,tun,1
zwe,tur,1
zwe,gbr,1
